{
    "name": "Utilisateur",
    "fields": [
        {
            "fieldName": "login",
            "fieldType": "String"
        },
        {
            "fieldName": "password",
            "fieldType": "String"
        },
        {
            "fieldName": "firstName",
            "fieldType": "String"
        },
        {
            "fieldName": "lastName",
            "fieldType": "String"
        },
        {
            "fieldName": "role",
            "fieldType": "Role",
            "fieldValues": "USER,ADMIN"
        }
    ],
    "relationships": [],
    "changelogDate": "20180930123657",
    "entityTableName": "utilisateur",
    "dto": "mapstruct",
    "pagination": "pagination",
    "service": "serviceImpl",
    "jpaMetamodelFiltering": false,
    "fluentMethods": true,
    "clientRootFolder": "project3",
    "applications": "*",
    "microserviceName": "project3"
}